{
	"Id": "/dice/addons",
	"Install": 2,
	"Cpus": [
		0.1,
		0.2
	],
	"Mem": [
		512,
		512
	],
	"Instances": [
		1,
		1
	],
	"Host": false,
	"Image": "2.8.19",
	"Vars": {},
	"Definition": {
		"container": {
			"docker": {
				"image": "registry.cn-hangzhou.aliyuncs.com/terminus/dice-addons:{{$.Component.Image}}",
				"parameters": [
					{
						"key": "cpu-quota",
						"value": "0"
					},
					{
						"key": "dns-search",
						"value": "dice.marathon.l4lb.thisdcos.directory"
					},
					{
						"key": "log-driver",
						"value": "json-file"
					},
					{
						"key": "log-opt",
						"value": "max-size=100m"
					},
					{
						"key": "log-opt",
						"value": "max-file=10"
					}
				]
			},
			"portMappings": [
				{
					"containerPort": 8080,
					"labels": {
						"VIP_0": "addons.dice:8080"
					}
				}
			],
			"type": "DOCKER"
		},
		"env": {
			"ADDON_SCHEDULER_FLAG": "false",
			"APP_DIR": "addons",
			"CONTAINER_LOGGER_LOGROTATE_MAX_STDERR_SIZE": "100MB",
			"CONTAINER_LOGGER_LOGROTATE_MAX_STDOUT_SIZE": "100MB",
			"CONTAINER_LOGGER_LOGROTATE_STDERR_OPTIONS": "rotate 9",
			"CONTAINER_LOGGER_LOGROTATE_STDOUT_OPTIONS": "rotate 9",
			"MYSQL_DATABASE": "",
			"MYSQL_HOST": "",
			"MYSQL_PASSWORD": "",
			"MYSQL_PORT": "",
			"MYSQL_USERNAME": "",
			"PAAS_ADDON_ORG_CONSTRAINTS_ENABLED": "{{not $.Cluster.InjectDicePlatform}}",
			"PAAS_DCOS_URL": "http://master.mesos:80",
			"PAAS_SCHEDULE_HOST": "http://dicescheduler.marathon.l4lb.thisdcos.directory:9091",
			"PANDORA_ADDON_PREFIX": ""
		},
		"healthChecks": [
			{
				"gracePeriodSeconds": 30,
				"intervalSeconds": 5,
				"maxConsecutiveFailures": 0,
				"portIndex": 0,
				"protocol": "TCP",
				"timeoutSeconds": 10
			}
		],
		"networks": [
			{
				"mode": "container",
				"name": "dcos"
			}
		]
	},
	"Created": 1530784827498,
	"Changed": 1530784827498
}
