{
	"Id": "/dice/redis",
	"Install": 2,
	"Cpus": [
		0.1,
		0.1
	],
	"Mem": [
		128,
		128
	],
	"Instances": [
		1,
		1
	],
	"Host": false,
	"Image": "1.0.0",
	"Vars": {},
	"Definition": {
		"container": {
			"docker": {
				"image": "registry.cn-hangzhou.aliyuncs.com/terminus/dice-redis:{{$.Component.Image}}",
				"parameters": [
					{
						"key": "cpu-quota",
						"value": "0"
					},
					{
						"key": "dns-search",
						"value": "dice.marathon.l4lb.thisdcos.directory"
					},
					{
						"key": "log-driver",
						"value": "json-file"
					},
					{
						"key": "log-opt",
						"value": "max-size=100m"
					},
					{
						"key": "log-opt",
						"value": "max-file=10"
					}
				]
			},
			"portMappings": [
				{
					"containerPort": 6379,
					"labels": {
						"VIP_0": "/dice/redis:6379"
					}
				}
			],
			"type": "DOCKER"
		},
		"env": {
			"REDIS_PASSWORD": "mBgjSOC1YDPwCz2Y"
		},
		"healthChecks": [
			{
				"gracePeriodSeconds": 30,
				"intervalSeconds": 5,
				"maxConsecutiveFailures": 0,
				"portIndex": 0,
				"protocol": "TCP",
				"timeoutSeconds": 10
			}
		],
		"networks": [
			{
				"mode": "container",
				"name": "dcos"
			}
		]
	},
	"Created": 1530784827498,
	"Changed": 1530784827498
}