{
	"Id": "/addons/mysql-dice",
	"Install": 0,
	"Cpus": [
		0.1,
		0.5
	],
	"Mem": [
		512,
		2048
	],
	"Instances": [
		1,
		1
	],
	"Host": false,
	"Image": "1.3.0",
	"Vars": {},
	"Definition": {
		"container": {
			"docker": {
				"image": "registry.cn-hangzhou.aliyuncs.com/terminus/dice-mysql:{{$.Component.Image}}",
				"parameters": [
					{
						"key": "cpu-quota",
						"value": "0"
					},
					{
						"key": "log-driver",
						"value": "json-file"
					},
					{
						"key": "log-opt",
						"value": "max-size=100m"
					},
					{
						"key": "log-opt",
						"value": "max-file=10"
					}
				]
			},
			"portMappings": [
				{
					"containerPort": 3306,
					"labels": {
						"VIP_0": "/addons/mysql/dice/mysql:3306"
					}
				}
			],
			"type": "DOCKER",
			"volumes": [
				{
					"containerPath": "/var/lib/mysql",
					"hostPath": "/netdata/dice/mysql",
					"mode": "RW"
				}
			]
		},
		"env": {
			"MYSQL_DATABASE": "dice",
			"MYSQL_ROOT_PASSWORD": "Hello1234"
		},
		"healthChecks": [
			{
				"gracePeriodSeconds": 120,
				"intervalSeconds": 5,
				"maxConsecutiveFailures": 3,
				"portIndex": 0,
				"protocol": "TCP",
				"timeoutSeconds": 10
			}
		],
		"networks": [
			{
				"mode": "container",
				"name": "dcos"
			}
		]
	},
	"Created": 1530784827498,
	"Changed": 1530784827498
}
