{
	"Id": "/sso/server",
	"Install": 2,
	"Cpus": [
		0.1,
		0.1
	],
	"Mem": [
		1024,
		1024
	],
	"Instances": [
		1,
		1
	],
	"Host": false,
	"Image": "2.7.0",
	"Vars": {},
	"Definition": {
		"container": {
			"docker": {
				"image": "registry.cn-hangzhou.aliyuncs.com/terminus/dice-login:{{$.Component.Image}}",
				"parameters": [
					{
						"key": "cpu-quota",
						"value": "0"
					},
					{
						"key": "log-driver",
						"value": "json-file"
					},
					{
						"key": "log-opt",
						"value": "max-size=100m"
					},
					{
						"key": "log-opt",
						"value": "max-file=10"
					}
				]
			},
			"portMappings": [
				{
					"containerPort": 8080,
					"labels": {
						"VIP_0": "/sso/server:8080"
					}
				}
			],
			"type": "DOCKER"
		},
		"env": {
			"APP_DIR": "authserver",
			"MYSQL_DATABASE": "",
			"MYSQL_HOST": "",
			"MYSQL_PASSWORD": "",
			"MYSQL_PORT": "",
			"MYSQL_USERNAME": "",
			"REDIS_HOST": "redis-sso.marathon.containerip.dcos.thisdcos.directory",
			"REDIS_PASSWORD": "Hello1234",
			"REDIS_PORT": "6379",
			"SPRING_PROFILES_ACTIVE": "docker",
			"SSO_DOMAIN": "",
			"SSO_LOCK_JS": ""
		},
		"healthChecks": [
			{
				"gracePeriodSeconds": 30,
				"intervalSeconds": 5,
				"maxConsecutiveFailures": 0,
				"portIndex": 0,
				"protocol": "TCP",
				"timeoutSeconds": 10
			}
		],
		"labels": {
			"HAPROXY_0_BACKEND_HEAD": "backend {backend}\n balance {balance}\n mode {mode}\n compression algo gzip\n",
			"HAPROXY_0_VHOST": "",
			"HAPROXY_GROUP": "external"
		},
		"networks": [
			{
				"mode": "container",
				"name": "dcos"
			}
		]
	},
	"Created": 1530784827498,
	"Changed": 1530784827498
}